default		0
timeout		2

# Used when no splashimage is used
color 		cyan/blue white/blue

# Gets enabled/disabled depending on Grub support for splashimage
###splashimage	/boot/grub/splash.xpm.gz

# Used when a splashimage is enabled
foreground 	000000
background 	cccccc

title		Buildroot ISO9660 image
kernel		__KERNEL_PATH__ root=/dev/sr0
initrd		__INITRD_PATH__

title		Buildroot SDA without initrd
kernel		__KERNEL_PATH__ root=/dev/sda

title		Buildroot only big kernel
kernel		__KERNEL_PATH__

title		Hard Drive 1 (first partition)
rootnoverify	(hd0)
chainloader	+1

title		Hard Drive 2 (first partition)
rootnoverify	(hd1,0)
chainloader	+1

title		Hard Drive second partition (hd0,1)
rootnoverify (hd0,1)
chainloader +1

title		Hard Drive partition sda5 (hd0,4)
rootnoverify (hd0,4)
chainloader +1

title Arch Linux (hd0,0)
rootnoverify (hd0,0)
kernel /boot/vmlinuz-linux root=/dev/sda1 ro || kernel /vmlinuz.old root=/dev/sda1 ro
initrd /boot/initramfs-linux.img || initrd /initrd.img.old

title Ubuntu Linux find root by uuid or sda3 (hd0)
find --set-root --ignore-floppies /vmlinuz || find --set-root --ignore-floppies /vmlinuz.old
kernel /vmlinuz root=32c1e89f-b0ed-46a9-931d-144d1d5fc94e ro || kernel /vmlinuz.old root=/dev/sda3 ro
initrd /initrd.img || initrd /initrd.img.old
